{
  "docs": [
    {
      "_id": "a",
      "code": 0,
      "message": "success",
      "data": {
        "id": 117,
        "name": "AC Schnitzer",
        "bfirstletter": "A",
        "logo": "https://car3.autoimg.cn/cardfs/series/g27/M01/B0/62/autohomecar__ChcCQFs9vBKAO3YSAAAW0WOWvRc555.png",
        "country": "德国",
        "countryid": 2
      }
    },
    {
      "_id": "b",
      "code": 0,
      "message": "success",
      "data": {
        "id": 117,
        "name": "AC Schnitzer",
        "bfirstletter": "A",
        "logo": "https://car3.autoimg.cn/cardfs/series/g27/M01/B0/62/autohomecar__ChcCQFs9vBKAO3YSAAAW0WOWvRc555.png",
        "country": "德国",
        "countryid": 2
      }
    },
    {
      "_id": "c",
      "code": 0,
      "message": "success",
      "data": {
        "id": 117,
        "name": "AC Schnitzer",
        "bfirstletter": "A",
        "logo": "https://car3.autoimg.cn/cardfs/series/g27/M01/B0/62/autohomecar__ChcCQFs9vBKAO3YSAAAW0WOWvRc555.png",
        "country": "德国",
        "countryid": 2
      }
    },
    {
      "_id": "d",
      "code": 0,
      "message": "success",
      "data": {
        "id": 117,
        "name": "AC Schnitzer",
        "bfirstletter": "A",
        "logo": "https://car3.autoimg.cn/cardfs/series/g27/M01/B0/62/autohomecar__ChcCQFs9vBKAO3YSAAAW0WOWvRc555.png",
        "country": "德国",
        "countryid": 2
      }
    },
    {
      "_id": "e",
      "code": 0,
      "message": "success",
      "data": {
        "id": 117,
        "name": "AC Schnitzer",
        "bfirstletter": "A",
        "logo": "https://car3.autoimg.cn/cardfs/series/g27/M01/B0/62/autohomecar__ChcCQFs9vBKAO3YSAAAW0WOWvRc555.png",
        "country": "德国",
        "countryid": 2
      }
    },
    {
      "_id": "f",
      "code": 0,
      "message": "success",
      "data": {
        "id": 117,
        "name": "AC Schnitzer",
        "bfirstletter": "A",
        "logo": "https://car3.autoimg.cn/cardfs/series/g27/M01/B0/62/autohomecar__ChcCQFs9vBKAO3YSAAAW0WOWvRc555.png",
        "country": "德国",
        "countryid": 2
      }
    },
    {
      "_id": "g",
      "code": 0,
      "message": "success",
      "data": {
        "id": 117,
        "name": "AC Schnitzer",
        "bfirstletter": "A",
        "logo": "https://car3.autoimg.cn/cardfs/series/g27/M01/B0/62/autohomecar__ChcCQFs9vBKAO3YSAAAW0WOWvRc555.png",
        "country": "德国",
        "countryid": 2
      }
    },
    {
      "_id": "h",
      "code": 0,
      "message": "success",
      "data": {
        "id": 117,
        "name": "AC Schnitzer",
        "bfirstletter": "A",
        "logo": "https://car3.autoimg.cn/cardfs/series/g27/M01/B0/62/autohomecar__ChcCQFs9vBKAO3YSAAAW0WOWvRc555.png",
        "country": "德国",
        "countryid": 2
      }
    },
    {
      "_id": "i",
      "code": 0,
      "message": "success",
      "data": {
        "id": 117,
        "name": "AC Schnitzer",
        "bfirstletter": "A",
        "logo": "https://car3.autoimg.cn/cardfs/series/g27/M01/B0/62/autohomecar__ChcCQFs9vBKAO3YSAAAW0WOWvRc555.png",
        "country": "德国",
        "countryid": 2
      }
    },
    {
      "_id": "j",
      "code": 0,
      "message": "success",
      "data": {
        "id": 117,
        "name": "AC Schnitzer",
        "bfirstletter": "A",
        "logo": "https://car3.autoimg.cn/cardfs/series/g27/M01/B0/62/autohomecar__ChcCQFs9vBKAO3YSAAAW0WOWvRc555.png",
        "country": "德国",
        "countryid": 2
      }
    },
    {
      "_id": "k",
      "code": 0,
      "message": "success",
      "data": {
        "id": 117,
        "name": "AC Schnitzer",
        "bfirstletter": "A",
        "logo": "https://car3.autoimg.cn/cardfs/series/g27/M01/B0/62/autohomecar__ChcCQFs9vBKAO3YSAAAW0WOWvRc555.png",
        "country": "德国",
        "countryid": 2
      }
    },
    {
      "_id": "l",
      "code": 0,
      "message": "success",
      "data": {
        "id": 117,
        "name": "AC Schnitzer",
        "bfirstletter": "A",
        "logo": "https://car3.autoimg.cn/cardfs/series/g27/M01/B0/62/autohomecar__ChcCQFs9vBKAO3YSAAAW0WOWvRc555.png",
        "country": "德国",
        "countryid": 2
      }
    },
    {
      "_id": "m",
      "code": 0,
      "message": "success",
      "data": {
        "id": 117,
        "name": "AC Schnitzer",
        "bfirstletter": "A",
        "logo": "https://car3.autoimg.cn/cardfs/series/g27/M01/B0/62/autohomecar__ChcCQFs9vBKAO3YSAAAW0WOWvRc555.png",
        "country": "德国",
        "countryid": 2
      }
    },
    {
      "_id": "n",
      "code": 0,
      "message": "success",
      "data": {
        "id": 117,
        "name": "AC Schnitzer",
        "bfirstletter": "A",
        "logo": "https://car3.autoimg.cn/cardfs/series/g27/M01/B0/62/autohomecar__ChcCQFs9vBKAO3YSAAAW0WOWvRc555.png",
        "country": "德国",
        "countryid": 2
      }
    },
    {
      "_id": "o",
      "code": 0,
      "message": "success",
      "data": {
        "id": 117,
        "name": "AC Schnitzer",
        "bfirstletter": "A",
        "logo": "https://car3.autoimg.cn/cardfs/series/g27/M01/B0/62/autohomecar__ChcCQFs9vBKAO3YSAAAW0WOWvRc555.png",
        "country": "德国",
        "countryid": 2
      }
    },
    {
      "_id": "p",
      "code": 0,
      "message": "success",
      "data": {
        "id": 117,
        "name": "AC Schnitzer",
        "bfirstletter": "A",
        "logo": "https://car3.autoimg.cn/cardfs/series/g27/M01/B0/62/autohomecar__ChcCQFs9vBKAO3YSAAAW0WOWvRc555.png",
        "country": "德国",
        "countryid": 2
      }
    },
    {
      "_id": "q",
      "code": 0,
      "message": "success",
      "data": {
        "id": 117,
        "name": "AC Schnitzer",
        "bfirstletter": "A",
        "logo": "https://car3.autoimg.cn/cardfs/series/g27/M01/B0/62/autohomecar__ChcCQFs9vBKAO3YSAAAW0WOWvRc555.png",
        "country": "德国",
        "countryid": 2
      }
    },
    {
      "_id": "r",
      "code": 0,
      "message": "success",
      "data": {
        "id": 117,
        "name": "AC Schnitzer",
        "bfirstletter": "A",
        "logo": "https://car3.autoimg.cn/cardfs/series/g27/M01/B0/62/autohomecar__ChcCQFs9vBKAO3YSAAAW0WOWvRc555.png",
        "country": "德国",
        "countryid": 2
      }
    },
    {
      "_id": "s",
      "code": 0,
      "message": "success",
      "data": {
        "id": 117,
        "name": "AC Schnitzer",
        "bfirstletter": "A",
        "logo": "https://car3.autoimg.cn/cardfs/series/g27/M01/B0/62/autohomecar__ChcCQFs9vBKAO3YSAAAW0WOWvRc555.png",
        "country": "德国",
        "countryid": 2
      }
    },
    {
      "_id": "t",
      "code": 0,
      "message": "success",
      "data": {
        "id": 117,
        "name": "AC Schnitzer",
        "bfirstletter": "A",
        "logo": "https://car3.autoimg.cn/cardfs/series/g27/M01/B0/62/autohomecar__ChcCQFs9vBKAO3YSAAAW0WOWvRc555.png",
        "country": "德国",
        "countryid": 2
      }
    },
    {
      "_id": "u",
      "code": 0,
      "message": "success",
      "data": {
        "id": 509,
        "name": "AITO",
        "bfirstletter": "A",
        "logo": "https://car3.autoimg.cn/cardfs/series/g28/M01/51/A0/autohomecar__ChxkmmGoO-6AW18kAAAbZ19L96M856.png",
        "country": "中国",
        "countryid": 1
      }
    },
    {
      "_id": "v",
      "code": 0,
      "message": "success",
      "data": {
        "id": 509,
        "name": "AITO",
        "bfirstletter": "A",
        "logo": "https://car3.autoimg.cn/cardfs/series/g28/M01/51/A0/autohomecar__ChxkmmGoO-6AW18kAAAbZ19L96M856.png",
        "country": "中国",
        "countryid": 1
      }
    },
    {
      "_id": "w",
      "code": 0,
      "message": "success",
      "data": {
        "id": 509,
        "name": "AITO",
        "bfirstletter": "A",
        "logo": "https://car3.autoimg.cn/cardfs/series/g28/M01/51/A0/autohomecar__ChxkmmGoO-6AW18kAAAbZ19L96M856.png",
        "country": "中国",
        "countryid": 1
      }
    },
    {
      "_id": "x",
      "code": 0,
      "message": "success",
      "data": {
        "id": 276,
        "name": "ALPINA",
        "bfirstletter": "A",
        "logo": "https://car3.autoimg.cn/cardfs/series/g27/M05/AB/2E/autohomecar__wKgHHls8hiKADrqGAABK67H4HUI503.png",
        "country": "德国",
        "countryid": 2
      }
    },
    {
      "_id": "y",
      "code": 0,
      "message": "success",
      "data": {
        "id": 276,
        "name": "ALPINA",
        "bfirstletter": "A",
        "logo": "https://car3.autoimg.cn/cardfs/series/g27/M05/AB/2E/autohomecar__wKgHHls8hiKADrqGAABK67H4HUI503.png",
        "country": "德国",
        "countryid": 2
      }
    },
    {
      "_id": "z",
      "code": 0,
      "message": "success",
      "data": {
        "id": 272,
        "name": "ARCFOX极狐",
        "bfirstletter": "A",
        "logo": "https://car2.autoimg.cn/cardfs/series/g21/M06/5F/75/autohomecar__ChsEdmATuFGAJ6LHAAAMk3ugjWo809.png",
        "country": "中国",
        "countryid": 1
      }
    }
  ]
}