{
  "code": 0,
  "message": "success",
  "data": {
    "id": 117,
    "name": "AC Schnitzer",
    "bfirstletter": "A",
    "logo": "https://car3.autoimg.cn/cardfs/series/g27/M01/B0/62/autohomecar__ChcCQFs9vBKAO3YSAAAW0WOWvRc555.png",
    "country": "德国",
    "countryid": 2
  }
}