{
  "code": 0,
  "message": "success",
  "data": {
    "id": 276,
    "name": "ALPINA",
    "bfirstletter": "A",
    "logo": "https://car3.autoimg.cn/cardfs/series/g27/M05/AB/2E/autohomecar__wKgHHls8hiKADrqGAABK67H4HUI503.png",
    "country": "德国",
    "countryid": 2
  }
}