{
  "code": 0,
  "message": "success",
  "data": {
    "id": 272,
    "name": "ARCFOX极狐",
    "bfirstletter": "A",
    "logo": "https://car2.autoimg.cn/cardfs/series/g21/M06/5F/75/autohomecar__ChsEdmATuFGAJ6LHAAAMk3ugjWo809.png",
    "country": "中国",
    "countryid": 1
  }
}